{
    "page": 1,
    "total_results": 10000,
    "total_pages": 500,
    "results": [
        {
            "popularity": 1520.857,
            "vote_count": 111,
            "video": false,
            "poster_path": "/uOw5JD8IlD546feZ6oxbIjvN66P.jpg",
            "id": 718444,
            "adult": false,
            "backdrop_path": "/x4UkhIQuHIJyeeOTdcbZ3t3gBSa.jpg",
            "original_language": "en",
            "original_title": "Rogue",
            "genre_ids": [
                28
            ],
            "title": "Львица",
            "vote_average": 6,
            "overview": "События разворачиваются в Южной Африке. Саманта О'Хара руководит группой наемников, которой поручено ответственную миссию по освобождению заложников. Преступники похитили и удерживают школьниц, среди которых – дочь местного губернатора Асила. Люди О'Хары хорошо подготовились к операции.",
            "release_date": "2020-08-20"
        },
        {
            "popularity": 1321.893,
            "id": 605116,
            "video": false,
            "vote_count": 992,
            "vote_average": 6.7,
            "title": "Проект Power",
            "release_date": "2020-08-14",
            "original_language": "en",
            "original_title": "Project Power",
            "genre_ids": [
                28,
                80,
                878
            ],
            "backdrop_path": "/qVygtf2vU15L2yKS4Ke44U4oMdD.jpg",
            "adult": false,
            "overview": "В Новом Орлеане появляется странная пилюля, способная подарить суперспособности любому желающему. За появлением пилюли на улицах города стоит некая таинственная организация. Со стороны может показаться, что их изобретение — невероятный дар, но далеко не все выживают после получения суперспособностей. Невозможно предугадать, какие силы получит человек: кто-то становится невидимым или супербыстрым, но некоторых ждёт смертельный исход. Вдобавок ко всему способности приводят к новой волне криминальных разборок. Местный коп вместе с бывшим военным и девочкой, торговавшей наркотиками, берутся выследить людей, создавших пилюлю.",
            "poster_path": "/vxosD1sHqQiWiZCuE2RYXQRu91a.jpg"
        },
        {
            "popularity": 1046.41,
            "vote_count": 112,
            "video": false,
            "poster_path": "/6Bbq8qQWpoApLZYWFFAuZ1r2gFw.jpg",
            "id": 618354,
            "adult": false,
            "backdrop_path": "/bazlsLkNuhy3IuhviepqvlMm2hV.jpg",
            "original_language": "en",
            "original_title": "Superman: Man of Tomorrow",
            "genre_ids": [
                28,
                16,
                878
            ],
            "title": "Супермен: Человек Завтрашнего Дня",
            "vote_average": 7.6,
            "overview": "Действие картины разворачивается в начале супергеройской карьеры Кларка Кента, который только недавно устроился репортером в Daily Planet. По сюжету на Землю нападают Лобо и Паразит, с которыми Супермену поможет справиться Марсианин.",
            "release_date": "2020-08-23"
        }
       ]
}